EESchema Schematic File Version 2
LIBS:power
LIBS:device
LIBS:switches
LIBS:relays
LIBS:motors
LIBS:transistors
LIBS:conn
LIBS:linear
LIBS:regul
LIBS:74xx
LIBS:cmos4000
LIBS:adc-dac
LIBS:memory
LIBS:xilinx
LIBS:microcontrollers
LIBS:dsp
LIBS:microchip
LIBS:analog_switches
LIBS:motorola
LIBS:texas
LIBS:intel
LIBS:audio
LIBS:interface
LIBS:digital-audio
LIBS:philips
LIBS:display
LIBS:cypress
LIBS:siliconi
LIBS:opto
LIBS:atmel
LIBS:contrib
LIBS:valves
LIBS:arduino_nano
LIBS:mpu6050
LIBS:fc_shield-cache
EELAYER 25 0
EELAYER END
$Descr A4 11693 8268
encoding utf-8
Sheet 1 1
Title "FC Shield"
Date ""
Rev "1"
Comp "Christoph Frauzem"
Comment1 ""
Comment2 ""
Comment3 ""
Comment4 ""
$EndDescr
$Comp
L arduino_nano uc1
U 1 1 5AAD8150
P 4950 3700
F 0 "uc1" H 4950 4600 60  0000 C CNN
F 1 "arduino_nano" H 5000 2800 60  0000 C CNN
F 2 "arduino_nano:arduino_nano" H 4550 3750 60  0001 C CNN
F 3 "" H 4550 3750 60  0001 C CNN
	1    4950 3700
	1    0    0    -1  
$EndComp
$Comp
L mpu6050 s1
U 1 1 5AAD81DA
P 1350 1850
F 0 "s1" H 1350 2350 60  0000 C CNN
F 1 "mpu6050" H 1350 1350 60  0000 C CNN
F 2 "mpu6050:mpu6050" H 1350 1850 60  0001 C CNN
F 3 "" H 1350 1850 60  0001 C CNN
	1    1350 1850
	-1   0    0    1   
$EndComp
Text Label 2200 5500 2    60   ~ 0
VIN
Text Label 2200 5650 2    60   ~ 0
GNDIN
Text Label 4100 4300 2    60   ~ 0
GNDIN
Text Label 4100 4400 2    60   ~ 0
VIN
$Comp
L Conn_01x02 J1
U 1 1 5AAD83FA
P 1250 5650
F 0 "J1" H 1250 5750 50  0000 C CNN
F 1 "Conn_01x02" H 1250 5450 50  0000 C CNN
F 2 "Pin_Headers:Pin_Header_Angled_1x02_Pitch2.54mm" H 1250 5650 50  0001 C CNN
F 3 "" H 1250 5650 50  0001 C CNN
	1    1250 5650
	-1   0    0    1   
$EndComp
Text Label 1600 5550 0    60   ~ 0
VIN
Text Label 1600 5650 0    60   ~ 0
GNDIN
NoConn ~ 5800 4300
NoConn ~ 4100 4200
$Comp
L Jumper_NO_Small JP1
U 1 1 5AAD86C5
P 2200 1500
F 0 "JP1" H 2200 1580 50  0000 C CNN
F 1 "Jumper_NO_Small" H 2210 1440 50  0000 C CNN
F 2 "jumper:solder_jumper" H 2200 1500 50  0001 C CNN
F 3 "" H 2200 1500 50  0001 C CNN
	1    2200 1500
	1    0    0    -1  
$EndComp
Text Label 2300 1500 0    60   ~ 0
D2
NoConn ~ 5800 4400
Text Label 1800 1900 0    60   ~ 0
SDA
Text Label 1800 2000 0    60   ~ 0
SCL
Text Notes 850  1100 0    60   ~ 0
MPU6050: Gyroscope and Accelerometer
Text Notes 4750 2550 0    60   ~ 0
Arduino Nano
Text Notes 1350 5150 0    60   ~ 0
Power Input: 3S LiPo
Text Notes 7900 1200 0    60   ~ 0
ESC PWM Pins
$Comp
L Conn_01x03 J2
U 1 1 5AAD8C1E
P 8300 1550
F 0 "J2" H 8300 1750 50  0000 C CNN
F 1 "Conn_01x03" H 8300 1350 50  0000 C CNN
F 2 "Pin_Headers:Pin_Header_Straight_1x03_Pitch2.54mm" H 8300 1550 50  0001 C CNN
F 3 "" H 8300 1550 50  0001 C CNN
	1    8300 1550
	1    0    0    -1  
$EndComp
NoConn ~ 8100 1550
$Comp
L Conn_01x03 J3
U 1 1 5AAD8E29
P 8300 2050
F 0 "J3" H 8300 2250 50  0000 C CNN
F 1 "Conn_01x03" H 8300 1850 50  0000 C CNN
F 2 "Pin_Headers:Pin_Header_Straight_1x03_Pitch2.54mm" H 8300 2050 50  0001 C CNN
F 3 "" H 8300 2050 50  0001 C CNN
	1    8300 2050
	1    0    0    -1  
$EndComp
NoConn ~ 8100 2050
$Comp
L Conn_01x03 J4
U 1 1 5AAD8E54
P 8300 2550
F 0 "J4" H 8300 2750 50  0000 C CNN
F 1 "Conn_01x03" H 8300 2350 50  0000 C CNN
F 2 "Pin_Headers:Pin_Header_Straight_1x03_Pitch2.54mm" H 8300 2550 50  0001 C CNN
F 3 "" H 8300 2550 50  0001 C CNN
	1    8300 2550
	1    0    0    -1  
$EndComp
NoConn ~ 8100 2550
$Comp
L Conn_01x03 J5
U 1 1 5AAD8E8F
P 8300 3050
F 0 "J5" H 8300 3250 50  0000 C CNN
F 1 "Conn_01x03" H 8300 2850 50  0000 C CNN
F 2 "Pin_Headers:Pin_Header_Straight_1x03_Pitch2.54mm" H 8300 3050 50  0001 C CNN
F 3 "" H 8300 3050 50  0001 C CNN
	1    8300 3050
	1    0    0    -1  
$EndComp
NoConn ~ 8100 3050
Text Notes 8600 1550 0    60   ~ 0
ESC1
Text Notes 8600 2050 0    60   ~ 0
ESC2
Text Notes 8600 2550 0    60   ~ 0
ESC3
Text Notes 8600 3050 0    60   ~ 0
ESC4
Text Notes 7850 3900 0    60   ~ 0
PWM Receiver
$Comp
L Conn_01x08 J6
U 1 1 5AAD9F9D
P 8300 4500
F 0 "J6" H 8300 4900 50  0000 C CNN
F 1 "Conn_01x08" H 8300 4000 50  0000 C CNN
F 2 "Pin_Headers:Pin_Header_Angled_1x08_Pitch2.54mm" H 8300 4500 50  0001 C CNN
F 3 "" H 8300 4500 50  0001 C CNN
	1    8300 4500
	1    0    0    -1  
$EndComp
Text Notes 7550 1650 0    60   ~ 0
PWM1
Text Notes 7550 2150 0    60   ~ 0
PWM2
Text Notes 7550 2650 0    60   ~ 0
PWM3
Text Notes 7550 3150 0    60   ~ 0
PWM4
Text Notes 7600 4400 0    60   ~ 0
Ch1
Text Notes 7600 4500 0    60   ~ 0
Ch2
Text Notes 7600 4600 0    60   ~ 0
Ch3
Text Notes 7600 4700 0    60   ~ 0
Ch4
Text Notes 7600 4800 0    60   ~ 0
Ch5
Text Notes 7600 4900 0    60   ~ 0
Ch6
$Comp
L +5V #PWR01
U 1 1 5AADAB0B
P 8100 4200
F 0 "#PWR01" H 8100 4050 50  0001 C CNN
F 1 "+5V" V 8100 4400 50  0000 C CNN
F 2 "" H 8100 4200 50  0001 C CNN
F 3 "" H 8100 4200 50  0001 C CNN
	1    8100 4200
	0    -1   -1   0   
$EndComp
$Comp
L GNDREF #PWR02
U 1 1 5AADAC1F
P 8100 4300
F 0 "#PWR02" H 8100 4050 50  0001 C CNN
F 1 "GNDREF" V 8100 4000 50  0000 C CNN
F 2 "" H 8100 4300 50  0001 C CNN
F 3 "" H 8100 4300 50  0001 C CNN
	1    8100 4300
	0    1    1    0   
$EndComp
Wire Wire Line
	1800 1500 2100 1500
Wire Wire Line
	1450 5550 1600 5550
Wire Wire Line
	1450 5650 1600 5650
Wire Notes Line
	750  850  2900 850 
Wire Notes Line
	2900 850  2900 2600
Wire Notes Line
	2900 2600 750  2600
Wire Notes Line
	750  2600 750  850 
Wire Notes Line
	750  4950 2800 4950
Wire Notes Line
	2800 4950 2800 6050
Wire Notes Line
	2800 6050 750  6050
Wire Notes Line
	750  6050 750  4950
$Comp
L +5V #PWR03
U 1 1 5AADB753
P 1800 2200
F 0 "#PWR03" H 1800 2050 50  0001 C CNN
F 1 "+5V" V 1800 2400 50  0000 C CNN
F 2 "" H 1800 2200 50  0001 C CNN
F 3 "" H 1800 2200 50  0001 C CNN
	1    1800 2200
	0    1    1    0   
$EndComp
$Comp
L GNDREF #PWR04
U 1 1 5AADB779
P 1800 2100
F 0 "#PWR04" H 1800 1850 50  0001 C CNN
F 1 "GNDREF" V 1800 1800 50  0000 C CNN
F 2 "" H 1800 2100 50  0001 C CNN
F 3 "" H 1800 2100 50  0001 C CNN
	1    1800 2100
	0    -1   -1   0   
$EndComp
NoConn ~ 5800 4200
$Comp
L +5V #PWR06
U 1 1 5AADBF20
P 4100 4100
F 0 "#PWR06" H 4100 3950 50  0001 C CNN
F 1 "+5V" V 4100 4300 50  0000 C CNN
F 2 "" H 4100 4100 50  0001 C CNN
F 3 "" H 4100 4100 50  0001 C CNN
	1    4100 4100
	0    -1   -1   0   
$EndComp
Text Label 4100 3800 2    60   ~ 0
SCL
Text Label 4100 3700 2    60   ~ 0
SDA
NoConn ~ 4100 3600
NoConn ~ 4100 3500
NoConn ~ 4100 3400
NoConn ~ 4100 3300
NoConn ~ 4100 3200
NoConn ~ 4100 3100
$Comp
L LED D1
U 1 1 5AADC2BE
P 1500 3600
F 0 "D1" H 1500 3700 50  0000 C CNN
F 1 "LED" H 1500 3500 50  0000 C CNN
F 2 "LEDs:LED_D5.0mm" H 1500 3600 50  0001 C CNN
F 3 "" H 1500 3600 50  0001 C CNN
	1    1500 3600
	1    0    0    -1  
$EndComp
$Comp
L R R1
U 1 1 5AADC661
P 1200 3600
F 0 "R1" V 1280 3600 50  0000 C CNN
F 1 "200Ohm" V 1100 3600 50  0000 C CNN
F 2 "Resistors_THT:R_Axial_DIN0207_L6.3mm_D2.5mm_P7.62mm_Horizontal" V 1130 3600 50  0001 C CNN
F 3 "" H 1200 3600 50  0001 C CNN
	1    1200 3600
	0    1    1    0   
$EndComp
$Comp
L +5V #PWR08
U 1 1 5AADC96D
P 1650 3600
F 0 "#PWR08" H 1650 3450 50  0001 C CNN
F 1 "+5V" V 1650 3800 50  0000 C CNN
F 2 "" H 1650 3600 50  0001 C CNN
F 3 "" H 1650 3600 50  0001 C CNN
	1    1650 3600
	0    1    1    0   
$EndComp
Text Notes 1100 3350 0    60   ~ 0
Status LED
Wire Notes Line
	750  3200 2000 3200
Wire Notes Line
	2000 3200 2000 3850
Wire Notes Line
	2000 3850 750  3850
Wire Notes Line
	750  3850 750  3200
NoConn ~ 4100 3900
NoConn ~ 4100 4000
$Comp
L PWR_FLAG #FLG09
U 1 1 5AADD3A0
P 2300 5500
F 0 "#FLG09" H 2300 5575 50  0001 C CNN
F 1 "PWR_FLAG" V 2200 5750 50  0000 C CNN
F 2 "" H 2300 5500 50  0001 C CNN
F 3 "" H 2300 5500 50  0001 C CNN
	1    2300 5500
	0    1    1    0   
$EndComp
$Comp
L PWR_FLAG #FLG010
U 1 1 5AADD3D3
P 2300 5650
F 0 "#FLG010" H 2300 5725 50  0001 C CNN
F 1 "PWR_FLAG" V 2200 5900 50  0000 C CNN
F 2 "" H 2300 5650 50  0001 C CNN
F 3 "" H 2300 5650 50  0001 C CNN
	1    2300 5650
	0    1    1    0   
$EndComp
Wire Wire Line
	2200 5650 2300 5650
Wire Wire Line
	2200 5500 2300 5500
$Comp
L GNDREF #PWR011
U 1 1 5AADF921
P 8100 1450
F 0 "#PWR011" H 8100 1200 50  0001 C CNN
F 1 "GNDREF" H 8100 1250 50  0000 C CNN
F 2 "" H 8100 1450 50  0001 C CNN
F 3 "" H 8100 1450 50  0001 C CNN
	1    8100 1450
	0    1    1    0   
$EndComp
$Comp
L GNDREF #PWR012
U 1 1 5AADF94D
P 8100 1950
F 0 "#PWR012" H 8100 1700 50  0001 C CNN
F 1 "GNDREF" H 8100 1750 50  0000 C CNN
F 2 "" H 8100 1950 50  0001 C CNN
F 3 "" H 8100 1950 50  0001 C CNN
	1    8100 1950
	0    1    1    0   
$EndComp
$Comp
L GNDREF #PWR013
U 1 1 5AADF979
P 8100 2450
F 0 "#PWR013" H 8100 2200 50  0001 C CNN
F 1 "GNDREF" H 8100 2250 50  0000 C CNN
F 2 "" H 8100 2450 50  0001 C CNN
F 3 "" H 8100 2450 50  0001 C CNN
	1    8100 2450
	0    1    1    0   
$EndComp
$Comp
L GNDREF #PWR014
U 1 1 5AADF9B0
P 8100 2950
F 0 "#PWR014" H 8100 2700 50  0001 C CNN
F 1 "GNDREF" H 8100 2750 50  0000 C CNN
F 2 "" H 8100 2950 50  0001 C CNN
F 3 "" H 8100 2950 50  0001 C CNN
	1    8100 2950
	0    1    1    0   
$EndComp
$Comp
L GNDREF #PWR?
U 1 1 5AAE0260
P 5800 4100
F 0 "#PWR?" H 5800 3850 50  0001 C CNN
F 1 "GNDREF" V 5800 3800 50  0000 C CNN
F 2 "" H 5800 4100 50  0001 C CNN
F 3 "" H 5800 4100 50  0001 C CNN
	1    5800 4100
	0    -1   -1   0   
$EndComp
Wire Wire Line
	8100 4900 6300 4900
Wire Wire Line
	6300 4900 6300 3900
Wire Wire Line
	6300 3900 5800 3900
Text Label 5800 4000 0    60   ~ 0
D2
Wire Wire Line
	8100 4800 6350 4800
Wire Wire Line
	6350 4800 6350 3800
Wire Wire Line
	6350 3800 5800 3800
Wire Wire Line
	8100 4700 6400 4700
Wire Wire Line
	6400 4700 6400 3700
Wire Wire Line
	6400 3700 5800 3700
Wire Wire Line
	8100 4600 6450 4600
Wire Wire Line
	6450 4600 6450 3600
Wire Wire Line
	6450 3600 5800 3600
Wire Wire Line
	8100 4500 6500 4500
Wire Wire Line
	6500 4500 6500 3500
Wire Wire Line
	6500 3500 5800 3500
Wire Wire Line
	8100 4400 6550 4400
Wire Wire Line
	6550 4400 6550 3400
Wire Wire Line
	6550 3400 5800 3400
Wire Wire Line
	8100 1650 6400 1650
Wire Wire Line
	6400 1650 6400 3000
Wire Wire Line
	6400 3000 5800 3000
Wire Wire Line
	8100 2150 6450 2150
Wire Wire Line
	6450 2150 6450 3100
Wire Wire Line
	6450 3100 5800 3100
Wire Wire Line
	8100 2650 6500 2650
Wire Wire Line
	6500 2650 6500 3200
Wire Wire Line
	6500 3200 5800 3200
Wire Wire Line
	8100 3150 6550 3150
Wire Wire Line
	6550 3150 6550 3300
Wire Wire Line
	6550 3300 5800 3300
Text Label 4100 3000 2    60   ~ 0
D13
Text Label 1050 3600 2    60   ~ 0
D13
$EndSCHEMATC
