M48
;DRILL file {KiCad 4.0.7} date 04/21/18 14:47:19
;FORMAT={-:-/ absolute / metric / decimal}
FMAT,2
METRIC,TZ
T1C0.800
T2C0.900
T3C1.000
%
G90
G05
M71
T1
X130.38Y-122.5
X138.Y-122.5
T2
X142.Y-122.5
X144.54Y-122.5
T3
X87.5Y-89.
X87.5Y-91.54
X87.5Y-94.08
X89.74Y-99.38
X89.74Y-114.62
X92.Y-89.
X92.Y-91.54
X92.Y-94.08
X92.28Y-99.38
X92.28Y-114.62
X94.82Y-99.38
X94.82Y-114.62
X96.5Y-89.
X96.5Y-91.54
X96.5Y-94.08
X96.5Y-122.
X96.5Y-124.54
X97.36Y-99.38
X97.36Y-114.62
X99.9Y-99.38
X99.9Y-114.62
X101.Y-89.
X101.Y-91.54
X101.Y-94.08
X102.44Y-99.38
X102.44Y-114.62
X104.98Y-99.38
X104.98Y-114.62
X107.52Y-99.38
X107.52Y-114.62
X110.06Y-99.38
X110.06Y-114.62
X112.6Y-99.38
X112.6Y-114.62
X115.14Y-99.38
X115.14Y-114.62
X117.68Y-99.38
X117.68Y-114.62
X120.22Y-99.38
X120.22Y-114.62
X122.76Y-99.38
X122.76Y-114.62
X125.3Y-99.38
X125.3Y-114.62
X144.35Y-98.11
X144.35Y-108.27
X144.35Y-110.81
X144.35Y-113.35
X144.35Y-115.89
X150.7Y-98.11
X150.7Y-100.65
X150.7Y-103.19
X150.7Y-105.73
X150.7Y-108.27
X150.7Y-110.81
X150.7Y-113.35
X150.7Y-115.89
T0
M30
