G04 #@! TF.FileFunction,Copper,L1,Top,Signal*
%FSLAX46Y46*%
G04 Gerber Fmt 4.6, Leading zero omitted, Abs format (unit mm)*
G04 Created by KiCad (PCBNEW 4.0.7) date 04/21/18 14:46:54*
%MOMM*%
%LPD*%
G01*
G04 APERTURE LIST*
%ADD10C,0.100000*%
%ADD11R,1.700000X1.700000*%
%ADD12O,1.700000X1.700000*%
%ADD13C,1.600000*%
%ADD14O,1.600000X1.600000*%
%ADD15R,0.500000X0.900000*%
%ADD16R,1.800000X1.800000*%
%ADD17C,1.800000*%
%ADD18C,0.400000*%
%ADD19C,0.250000*%
%ADD20C,0.254000*%
G04 APERTURE END LIST*
D10*
D11*
X125300000Y-99380000D03*
D12*
X92280000Y-114620000D03*
X122760000Y-99380000D03*
X94820000Y-114620000D03*
X120220000Y-99380000D03*
X97360000Y-114620000D03*
X117680000Y-99380000D03*
X99900000Y-114620000D03*
X115140000Y-99380000D03*
X102440000Y-114620000D03*
X112600000Y-99380000D03*
X104980000Y-114620000D03*
X110060000Y-99380000D03*
X107520000Y-114620000D03*
X107520000Y-99380000D03*
X110060000Y-114620000D03*
X104980000Y-99380000D03*
X112600000Y-114620000D03*
X102440000Y-99380000D03*
X115140000Y-114620000D03*
X99900000Y-99380000D03*
X117680000Y-114620000D03*
X97360000Y-99380000D03*
X120220000Y-114620000D03*
X94820000Y-99380000D03*
X122760000Y-114620000D03*
X92280000Y-99380000D03*
X125300000Y-114620000D03*
X89740000Y-99380000D03*
X89740000Y-114620000D03*
D11*
X144350000Y-115890000D03*
D12*
X144350000Y-113350000D03*
X144350000Y-110810000D03*
X144350000Y-108270000D03*
X144350000Y-98110000D03*
D13*
X138000000Y-122500000D03*
D14*
X130380000Y-122500000D03*
D15*
X138881000Y-91500000D03*
X138119000Y-91500000D03*
D11*
X150700000Y-115890000D03*
D12*
X150700000Y-113350000D03*
X150700000Y-110810000D03*
X150700000Y-108270000D03*
X150700000Y-105730000D03*
X150700000Y-103190000D03*
X150700000Y-100650000D03*
X150700000Y-98110000D03*
D11*
X101000000Y-89000000D03*
D12*
X101000000Y-91540000D03*
X101000000Y-94080000D03*
D11*
X96500000Y-89000000D03*
D12*
X96500000Y-91540000D03*
X96500000Y-94080000D03*
D11*
X92000000Y-89000000D03*
D12*
X92000000Y-91540000D03*
X92000000Y-94080000D03*
D11*
X87500000Y-89000000D03*
D12*
X87500000Y-91540000D03*
X87500000Y-94080000D03*
D16*
X142000000Y-122500000D03*
D17*
X144540000Y-122500000D03*
D11*
X96500000Y-122000000D03*
D12*
X96500000Y-124540000D03*
D18*
X142000000Y-122500000D02*
X138000000Y-122500000D01*
X117680000Y-114620000D02*
X117680000Y-113320000D01*
X150700000Y-115890000D02*
X144350000Y-115890000D01*
X144540000Y-122500000D02*
X144540000Y-116080000D01*
X144540000Y-116080000D02*
X144350000Y-115890000D01*
X140890000Y-115890000D02*
X144350000Y-115890000D01*
X137500000Y-112500000D02*
X140890000Y-115890000D01*
X118500000Y-112500000D02*
X137500000Y-112500000D01*
X117680000Y-113320000D02*
X118500000Y-112500000D01*
X122760000Y-114620000D02*
X122760000Y-114740000D01*
X122760000Y-114740000D02*
X115500000Y-122000000D01*
X115500000Y-122000000D02*
X96500000Y-122000000D01*
X125300000Y-114620000D02*
X125300000Y-115200000D01*
X125300000Y-115200000D02*
X115960000Y-124540000D01*
X115960000Y-124540000D02*
X96500000Y-124540000D01*
D19*
X104500000Y-106250000D02*
X104000000Y-106250000D01*
X149310000Y-110810000D02*
X144750000Y-106250000D01*
X144750000Y-106250000D02*
X104500000Y-106250000D01*
X150700000Y-110810000D02*
X149310000Y-110810000D01*
X99900000Y-102150000D02*
X99900000Y-99380000D01*
X104000000Y-106250000D02*
X99900000Y-102150000D01*
X106000000Y-105250000D02*
X105500000Y-105250000D01*
X148770000Y-108270000D02*
X145750000Y-105250000D01*
X145750000Y-105250000D02*
X106000000Y-105250000D01*
X150700000Y-108270000D02*
X148770000Y-108270000D01*
X102440000Y-102190000D02*
X102440000Y-99380000D01*
X105500000Y-105250000D02*
X102440000Y-102190000D01*
X104980000Y-99380000D02*
X104980000Y-102230000D01*
X146750000Y-104250000D02*
X148230000Y-105730000D01*
X148230000Y-105730000D02*
X150700000Y-105730000D01*
X144250000Y-104250000D02*
X107750000Y-104250000D01*
X144250000Y-104250000D02*
X146750000Y-104250000D01*
X107000000Y-104250000D02*
X107750000Y-104250000D01*
X104980000Y-102230000D02*
X107000000Y-104250000D01*
X110250000Y-103190000D02*
X109440000Y-103190000D01*
X107520000Y-101270000D02*
X107520000Y-99380000D01*
X109440000Y-103190000D02*
X107520000Y-101270000D01*
X110190000Y-103190000D02*
X110250000Y-103190000D01*
X110250000Y-103190000D02*
X150700000Y-103190000D01*
X110060000Y-99380000D02*
X110060000Y-101310000D01*
X146100000Y-100650000D02*
X144500000Y-102250000D01*
X144500000Y-102250000D02*
X143500000Y-102250000D01*
X143500000Y-102250000D02*
X112000000Y-102250000D01*
X146100000Y-100650000D02*
X150700000Y-100650000D01*
X111000000Y-102250000D02*
X112000000Y-102250000D01*
X110060000Y-101310000D02*
X111000000Y-102250000D01*
X112600000Y-99380000D02*
X112600000Y-100600000D01*
X146890000Y-98110000D02*
X143750000Y-101250000D01*
X143750000Y-101250000D02*
X113750000Y-101250000D01*
X146890000Y-98110000D02*
X150700000Y-98110000D01*
X113250000Y-101250000D02*
X113750000Y-101250000D01*
X112600000Y-100600000D02*
X113250000Y-101250000D01*
X144350000Y-98110000D02*
X144350000Y-93250000D01*
X142600000Y-91500000D02*
X138881000Y-91500000D01*
X144350000Y-93250000D02*
X142600000Y-91500000D01*
X116000000Y-97000000D02*
X115500000Y-97000000D01*
X130500000Y-91500000D02*
X125500000Y-97000000D01*
X125500000Y-97000000D02*
X116000000Y-97000000D01*
X138119000Y-91500000D02*
X130500000Y-91500000D01*
X115140000Y-97360000D02*
X115140000Y-99380000D01*
X115500000Y-97000000D02*
X115140000Y-97360000D01*
X144350000Y-110810000D02*
X113870000Y-110810000D01*
X113870000Y-110810000D02*
X110060000Y-114620000D01*
X144350000Y-108270000D02*
X113870000Y-108270000D01*
X113870000Y-108270000D02*
X107520000Y-114620000D01*
D20*
G36*
X86053569Y-87898110D02*
X86002560Y-88150000D01*
X86002560Y-89850000D01*
X86046838Y-90085317D01*
X86185910Y-90301441D01*
X86398110Y-90446431D01*
X86465541Y-90460086D01*
X86420853Y-90489946D01*
X86098946Y-90971715D01*
X85985907Y-91540000D01*
X86098946Y-92108285D01*
X86420853Y-92590054D01*
X86750026Y-92810000D01*
X86420853Y-93029946D01*
X86098946Y-93511715D01*
X85985907Y-94080000D01*
X86098946Y-94648285D01*
X86420853Y-95130054D01*
X86902622Y-95451961D01*
X87470907Y-95565000D01*
X87529093Y-95565000D01*
X88097378Y-95451961D01*
X88579147Y-95130054D01*
X88901054Y-94648285D01*
X89014093Y-94080000D01*
X88901054Y-93511715D01*
X88579147Y-93029946D01*
X88249974Y-92810000D01*
X88579147Y-92590054D01*
X88901054Y-92108285D01*
X89014093Y-91540000D01*
X88901054Y-90971715D01*
X88579147Y-90489946D01*
X88537548Y-90462150D01*
X88585317Y-90453162D01*
X88801441Y-90314090D01*
X88946431Y-90101890D01*
X88997440Y-89850000D01*
X88997440Y-88150000D01*
X88953162Y-87914683D01*
X88821452Y-87710000D01*
X90682099Y-87710000D01*
X90553569Y-87898110D01*
X90502560Y-88150000D01*
X90502560Y-89850000D01*
X90546838Y-90085317D01*
X90685910Y-90301441D01*
X90898110Y-90446431D01*
X90965541Y-90460086D01*
X90920853Y-90489946D01*
X90598946Y-90971715D01*
X90485907Y-91540000D01*
X90598946Y-92108285D01*
X90920853Y-92590054D01*
X91250026Y-92810000D01*
X90920853Y-93029946D01*
X90598946Y-93511715D01*
X90485907Y-94080000D01*
X90598946Y-94648285D01*
X90920853Y-95130054D01*
X91402622Y-95451961D01*
X91970907Y-95565000D01*
X92029093Y-95565000D01*
X92597378Y-95451961D01*
X93079147Y-95130054D01*
X93401054Y-94648285D01*
X93514093Y-94080000D01*
X93401054Y-93511715D01*
X93079147Y-93029946D01*
X92749974Y-92810000D01*
X93079147Y-92590054D01*
X93401054Y-92108285D01*
X93514093Y-91540000D01*
X93401054Y-90971715D01*
X93079147Y-90489946D01*
X93037548Y-90462150D01*
X93085317Y-90453162D01*
X93301441Y-90314090D01*
X93446431Y-90101890D01*
X93497440Y-89850000D01*
X93497440Y-88150000D01*
X93453162Y-87914683D01*
X93321452Y-87710000D01*
X95182099Y-87710000D01*
X95053569Y-87898110D01*
X95002560Y-88150000D01*
X95002560Y-89850000D01*
X95046838Y-90085317D01*
X95185910Y-90301441D01*
X95398110Y-90446431D01*
X95465541Y-90460086D01*
X95420853Y-90489946D01*
X95098946Y-90971715D01*
X94985907Y-91540000D01*
X95098946Y-92108285D01*
X95420853Y-92590054D01*
X95750026Y-92810000D01*
X95420853Y-93029946D01*
X95098946Y-93511715D01*
X94985907Y-94080000D01*
X95098946Y-94648285D01*
X95420853Y-95130054D01*
X95902622Y-95451961D01*
X96470907Y-95565000D01*
X96529093Y-95565000D01*
X97097378Y-95451961D01*
X97579147Y-95130054D01*
X97901054Y-94648285D01*
X98014093Y-94080000D01*
X97901054Y-93511715D01*
X97579147Y-93029946D01*
X97249974Y-92810000D01*
X97579147Y-92590054D01*
X97901054Y-92108285D01*
X98014093Y-91540000D01*
X97901054Y-90971715D01*
X97579147Y-90489946D01*
X97537548Y-90462150D01*
X97585317Y-90453162D01*
X97801441Y-90314090D01*
X97946431Y-90101890D01*
X97997440Y-89850000D01*
X97997440Y-88150000D01*
X97953162Y-87914683D01*
X97821452Y-87710000D01*
X99682099Y-87710000D01*
X99553569Y-87898110D01*
X99502560Y-88150000D01*
X99502560Y-89850000D01*
X99546838Y-90085317D01*
X99685910Y-90301441D01*
X99898110Y-90446431D01*
X99965541Y-90460086D01*
X99920853Y-90489946D01*
X99598946Y-90971715D01*
X99485907Y-91540000D01*
X99598946Y-92108285D01*
X99920853Y-92590054D01*
X100250026Y-92810000D01*
X99920853Y-93029946D01*
X99598946Y-93511715D01*
X99485907Y-94080000D01*
X99598946Y-94648285D01*
X99920853Y-95130054D01*
X100402622Y-95451961D01*
X100970907Y-95565000D01*
X101029093Y-95565000D01*
X101597378Y-95451961D01*
X102079147Y-95130054D01*
X102401054Y-94648285D01*
X102514093Y-94080000D01*
X102401054Y-93511715D01*
X102079147Y-93029946D01*
X101749974Y-92810000D01*
X102079147Y-92590054D01*
X102177659Y-92442619D01*
X120764613Y-92442619D01*
X121104155Y-93264372D01*
X121732321Y-93893636D01*
X122553481Y-94234611D01*
X123442619Y-94235387D01*
X124264372Y-93895845D01*
X124893636Y-93267679D01*
X125234611Y-92446519D01*
X125235387Y-91557381D01*
X124895845Y-90735628D01*
X124267679Y-90106364D01*
X123446519Y-89765389D01*
X122557381Y-89764613D01*
X121735628Y-90104155D01*
X121106364Y-90732321D01*
X120765389Y-91553481D01*
X120764613Y-92442619D01*
X102177659Y-92442619D01*
X102401054Y-92108285D01*
X102514093Y-91540000D01*
X102401054Y-90971715D01*
X102079147Y-90489946D01*
X102037548Y-90462150D01*
X102085317Y-90453162D01*
X102301441Y-90314090D01*
X102446431Y-90101890D01*
X102497440Y-89850000D01*
X102497440Y-88150000D01*
X102453162Y-87914683D01*
X102321452Y-87710000D01*
X155290000Y-87710000D01*
X155290000Y-126290000D01*
X85710000Y-126290000D01*
X85710000Y-124540000D01*
X94985907Y-124540000D01*
X95098946Y-125108285D01*
X95420853Y-125590054D01*
X95902622Y-125911961D01*
X96470907Y-126025000D01*
X96529093Y-126025000D01*
X97097378Y-125911961D01*
X97579147Y-125590054D01*
X97722841Y-125375000D01*
X115960000Y-125375000D01*
X116279541Y-125311439D01*
X116550434Y-125130434D01*
X119238249Y-122442619D01*
X120764613Y-122442619D01*
X121104155Y-123264372D01*
X121732321Y-123893636D01*
X122553481Y-124234611D01*
X123442619Y-124235387D01*
X124264372Y-123895845D01*
X124893636Y-123267679D01*
X125212403Y-122500000D01*
X128916887Y-122500000D01*
X129026120Y-123049151D01*
X129337189Y-123514698D01*
X129802736Y-123825767D01*
X130351887Y-123935000D01*
X130408113Y-123935000D01*
X130957264Y-123825767D01*
X131422811Y-123514698D01*
X131733880Y-123049151D01*
X131786584Y-122784187D01*
X136564752Y-122784187D01*
X136782757Y-123311800D01*
X137186077Y-123715824D01*
X137713309Y-123934750D01*
X138284187Y-123935248D01*
X138811800Y-123717243D01*
X139194710Y-123335000D01*
X140452560Y-123335000D01*
X140452560Y-123400000D01*
X140496838Y-123635317D01*
X140635910Y-123851441D01*
X140848110Y-123996431D01*
X141100000Y-124047440D01*
X142900000Y-124047440D01*
X143135317Y-124003162D01*
X143351441Y-123864090D01*
X143490598Y-123660426D01*
X143524890Y-123694718D01*
X143639447Y-123580161D01*
X143725852Y-123836643D01*
X144299336Y-124046458D01*
X144909460Y-124020839D01*
X145354148Y-123836643D01*
X145440554Y-123580159D01*
X144540000Y-122679605D01*
X144525858Y-122693748D01*
X144346253Y-122514143D01*
X144360395Y-122500000D01*
X144719605Y-122500000D01*
X145620159Y-123400554D01*
X145876643Y-123314148D01*
X146086458Y-122740664D01*
X146073944Y-122442619D01*
X150764613Y-122442619D01*
X151104155Y-123264372D01*
X151732321Y-123893636D01*
X152553481Y-124234611D01*
X153442619Y-124235387D01*
X154264372Y-123895845D01*
X154893636Y-123267679D01*
X155234611Y-122446519D01*
X155235387Y-121557381D01*
X154895845Y-120735628D01*
X154267679Y-120106364D01*
X153446519Y-119765389D01*
X152557381Y-119764613D01*
X151735628Y-120104155D01*
X151106364Y-120732321D01*
X150765389Y-121553481D01*
X150764613Y-122442619D01*
X146073944Y-122442619D01*
X146060839Y-122130540D01*
X145876643Y-121685852D01*
X145620159Y-121599446D01*
X144719605Y-122500000D01*
X144360395Y-122500000D01*
X144346253Y-122485858D01*
X144525858Y-122306253D01*
X144540000Y-122320395D01*
X145440554Y-121419841D01*
X145354148Y-121163357D01*
X144780664Y-120953542D01*
X144170540Y-120979161D01*
X143725852Y-121163357D01*
X143639447Y-121419839D01*
X143524890Y-121305282D01*
X143488412Y-121341760D01*
X143364090Y-121148559D01*
X143151890Y-121003569D01*
X142900000Y-120952560D01*
X141100000Y-120952560D01*
X140864683Y-120996838D01*
X140648559Y-121135910D01*
X140503569Y-121348110D01*
X140452560Y-121600000D01*
X140452560Y-121665000D01*
X139194083Y-121665000D01*
X138813923Y-121284176D01*
X138286691Y-121065250D01*
X137715813Y-121064752D01*
X137188200Y-121282757D01*
X136784176Y-121686077D01*
X136565250Y-122213309D01*
X136564752Y-122784187D01*
X131786584Y-122784187D01*
X131843113Y-122500000D01*
X131733880Y-121950849D01*
X131422811Y-121485302D01*
X130957264Y-121174233D01*
X130408113Y-121065000D01*
X130351887Y-121065000D01*
X129802736Y-121174233D01*
X129337189Y-121485302D01*
X129026120Y-121950849D01*
X128916887Y-122500000D01*
X125212403Y-122500000D01*
X125234611Y-122446519D01*
X125235387Y-121557381D01*
X124895845Y-120735628D01*
X124267679Y-120106364D01*
X123446519Y-119765389D01*
X122557381Y-119764613D01*
X121735628Y-120104155D01*
X121106364Y-120732321D01*
X120765389Y-121553481D01*
X120764613Y-122442619D01*
X119238249Y-122442619D01*
X125505118Y-116175750D01*
X142865000Y-116175750D01*
X142865000Y-116866310D01*
X142961673Y-117099699D01*
X143140302Y-117278327D01*
X143373691Y-117375000D01*
X144064250Y-117375000D01*
X144223000Y-117216250D01*
X144223000Y-116017000D01*
X144477000Y-116017000D01*
X144477000Y-117216250D01*
X144635750Y-117375000D01*
X145326309Y-117375000D01*
X145559698Y-117278327D01*
X145738327Y-117099699D01*
X145835000Y-116866310D01*
X145835000Y-116175750D01*
X149215000Y-116175750D01*
X149215000Y-116866310D01*
X149311673Y-117099699D01*
X149490302Y-117278327D01*
X149723691Y-117375000D01*
X150414250Y-117375000D01*
X150573000Y-117216250D01*
X150573000Y-116017000D01*
X150827000Y-116017000D01*
X150827000Y-117216250D01*
X150985750Y-117375000D01*
X151676309Y-117375000D01*
X151909698Y-117278327D01*
X152088327Y-117099699D01*
X152185000Y-116866310D01*
X152185000Y-116175750D01*
X152026250Y-116017000D01*
X150827000Y-116017000D01*
X150573000Y-116017000D01*
X149373750Y-116017000D01*
X149215000Y-116175750D01*
X145835000Y-116175750D01*
X145676250Y-116017000D01*
X144477000Y-116017000D01*
X144223000Y-116017000D01*
X143023750Y-116017000D01*
X142865000Y-116175750D01*
X125505118Y-116175750D01*
X125608050Y-116072818D01*
X125868285Y-116021054D01*
X126350054Y-115699147D01*
X126671961Y-115217378D01*
X126785000Y-114649093D01*
X126785000Y-114590907D01*
X126671961Y-114022622D01*
X126350054Y-113540853D01*
X125868285Y-113218946D01*
X125300000Y-113105907D01*
X124731715Y-113218946D01*
X124249946Y-113540853D01*
X124030000Y-113870026D01*
X123810054Y-113540853D01*
X123328285Y-113218946D01*
X122760000Y-113105907D01*
X122191715Y-113218946D01*
X121709946Y-113540853D01*
X121490000Y-113870026D01*
X121270054Y-113540853D01*
X120788285Y-113218946D01*
X120220000Y-113105907D01*
X119651715Y-113218946D01*
X119169946Y-113540853D01*
X118942298Y-113881553D01*
X118875183Y-113738642D01*
X118446924Y-113348355D01*
X118036890Y-113178524D01*
X117807000Y-113299845D01*
X117807000Y-114493000D01*
X117827000Y-114493000D01*
X117827000Y-114747000D01*
X117807000Y-114747000D01*
X117807000Y-115940155D01*
X118036890Y-116061476D01*
X118446924Y-115891645D01*
X118875183Y-115501358D01*
X118942298Y-115358447D01*
X119169946Y-115699147D01*
X119651715Y-116021054D01*
X120190839Y-116128293D01*
X115154132Y-121165000D01*
X97997440Y-121165000D01*
X97997440Y-121150000D01*
X97953162Y-120914683D01*
X97814090Y-120698559D01*
X97601890Y-120553569D01*
X97350000Y-120502560D01*
X95650000Y-120502560D01*
X95414683Y-120546838D01*
X95198559Y-120685910D01*
X95053569Y-120898110D01*
X95002560Y-121150000D01*
X95002560Y-122850000D01*
X95046838Y-123085317D01*
X95185910Y-123301441D01*
X95398110Y-123446431D01*
X95465541Y-123460086D01*
X95420853Y-123489946D01*
X95098946Y-123971715D01*
X94985907Y-124540000D01*
X85710000Y-124540000D01*
X85710000Y-99350907D01*
X88255000Y-99350907D01*
X88255000Y-99409093D01*
X88368039Y-99977378D01*
X88689946Y-100459147D01*
X89171715Y-100781054D01*
X89740000Y-100894093D01*
X90308285Y-100781054D01*
X90790054Y-100459147D01*
X91010000Y-100129974D01*
X91229946Y-100459147D01*
X91711715Y-100781054D01*
X92280000Y-100894093D01*
X92848285Y-100781054D01*
X93330054Y-100459147D01*
X93550000Y-100129974D01*
X93769946Y-100459147D01*
X94251715Y-100781054D01*
X94820000Y-100894093D01*
X95388285Y-100781054D01*
X95870054Y-100459147D01*
X96090000Y-100129974D01*
X96309946Y-100459147D01*
X96791715Y-100781054D01*
X97360000Y-100894093D01*
X97928285Y-100781054D01*
X98410054Y-100459147D01*
X98630000Y-100129974D01*
X98849946Y-100459147D01*
X99140000Y-100652954D01*
X99140000Y-102150000D01*
X99197852Y-102440839D01*
X99362599Y-102687401D01*
X103462599Y-106787401D01*
X103709161Y-106952148D01*
X104000000Y-107010000D01*
X143585060Y-107010000D01*
X143270853Y-107219946D01*
X143077046Y-107510000D01*
X113870000Y-107510000D01*
X113579161Y-107567852D01*
X113332599Y-107732599D01*
X107886408Y-113178790D01*
X107520000Y-113105907D01*
X106951715Y-113218946D01*
X106469946Y-113540853D01*
X106250000Y-113870026D01*
X106030054Y-113540853D01*
X105548285Y-113218946D01*
X104980000Y-113105907D01*
X104411715Y-113218946D01*
X103929946Y-113540853D01*
X103710000Y-113870026D01*
X103490054Y-113540853D01*
X103008285Y-113218946D01*
X102440000Y-113105907D01*
X101871715Y-113218946D01*
X101389946Y-113540853D01*
X101170000Y-113870026D01*
X100950054Y-113540853D01*
X100468285Y-113218946D01*
X99900000Y-113105907D01*
X99331715Y-113218946D01*
X98849946Y-113540853D01*
X98630000Y-113870026D01*
X98410054Y-113540853D01*
X97928285Y-113218946D01*
X97360000Y-113105907D01*
X96791715Y-113218946D01*
X96309946Y-113540853D01*
X96090000Y-113870026D01*
X95870054Y-113540853D01*
X95388285Y-113218946D01*
X94820000Y-113105907D01*
X94251715Y-113218946D01*
X93769946Y-113540853D01*
X93550000Y-113870026D01*
X93330054Y-113540853D01*
X92848285Y-113218946D01*
X92280000Y-113105907D01*
X91711715Y-113218946D01*
X91229946Y-113540853D01*
X91010000Y-113870026D01*
X90790054Y-113540853D01*
X90308285Y-113218946D01*
X89740000Y-113105907D01*
X89171715Y-113218946D01*
X88689946Y-113540853D01*
X88368039Y-114022622D01*
X88255000Y-114590907D01*
X88255000Y-114649093D01*
X88368039Y-115217378D01*
X88689946Y-115699147D01*
X89171715Y-116021054D01*
X89740000Y-116134093D01*
X90308285Y-116021054D01*
X90790054Y-115699147D01*
X91010000Y-115369974D01*
X91229946Y-115699147D01*
X91711715Y-116021054D01*
X92280000Y-116134093D01*
X92848285Y-116021054D01*
X93330054Y-115699147D01*
X93550000Y-115369974D01*
X93769946Y-115699147D01*
X94251715Y-116021054D01*
X94820000Y-116134093D01*
X95388285Y-116021054D01*
X95870054Y-115699147D01*
X96090000Y-115369974D01*
X96309946Y-115699147D01*
X96791715Y-116021054D01*
X97360000Y-116134093D01*
X97928285Y-116021054D01*
X98410054Y-115699147D01*
X98630000Y-115369974D01*
X98849946Y-115699147D01*
X99331715Y-116021054D01*
X99900000Y-116134093D01*
X100468285Y-116021054D01*
X100950054Y-115699147D01*
X101170000Y-115369974D01*
X101389946Y-115699147D01*
X101871715Y-116021054D01*
X102440000Y-116134093D01*
X103008285Y-116021054D01*
X103490054Y-115699147D01*
X103710000Y-115369974D01*
X103929946Y-115699147D01*
X104411715Y-116021054D01*
X104980000Y-116134093D01*
X105548285Y-116021054D01*
X106030054Y-115699147D01*
X106250000Y-115369974D01*
X106469946Y-115699147D01*
X106951715Y-116021054D01*
X107520000Y-116134093D01*
X108088285Y-116021054D01*
X108570054Y-115699147D01*
X108790000Y-115369974D01*
X109009946Y-115699147D01*
X109491715Y-116021054D01*
X110060000Y-116134093D01*
X110628285Y-116021054D01*
X111110054Y-115699147D01*
X111330000Y-115369974D01*
X111549946Y-115699147D01*
X112031715Y-116021054D01*
X112600000Y-116134093D01*
X113168285Y-116021054D01*
X113650054Y-115699147D01*
X113870000Y-115369974D01*
X114089946Y-115699147D01*
X114571715Y-116021054D01*
X115140000Y-116134093D01*
X115708285Y-116021054D01*
X116190054Y-115699147D01*
X116417702Y-115358447D01*
X116484817Y-115501358D01*
X116913076Y-115891645D01*
X117323110Y-116061476D01*
X117553000Y-115940155D01*
X117553000Y-114747000D01*
X117533000Y-114747000D01*
X117533000Y-114493000D01*
X117553000Y-114493000D01*
X117553000Y-113299845D01*
X117323110Y-113178524D01*
X116913076Y-113348355D01*
X116484817Y-113738642D01*
X116417702Y-113881553D01*
X116190054Y-113540853D01*
X115708285Y-113218946D01*
X115140000Y-113105907D01*
X114571715Y-113218946D01*
X114089946Y-113540853D01*
X113870000Y-113870026D01*
X113650054Y-113540853D01*
X113168285Y-113218946D01*
X112640783Y-113114019D01*
X114184802Y-111570000D01*
X143077046Y-111570000D01*
X143270853Y-111860054D01*
X143600026Y-112080000D01*
X143270853Y-112299946D01*
X142948946Y-112781715D01*
X142835907Y-113350000D01*
X142948946Y-113918285D01*
X143270853Y-114400054D01*
X143314777Y-114429403D01*
X143140302Y-114501673D01*
X142961673Y-114680301D01*
X142865000Y-114913690D01*
X142865000Y-115604250D01*
X143023750Y-115763000D01*
X144223000Y-115763000D01*
X144223000Y-115743000D01*
X144477000Y-115743000D01*
X144477000Y-115763000D01*
X145676250Y-115763000D01*
X145835000Y-115604250D01*
X145835000Y-114913690D01*
X145738327Y-114680301D01*
X145559698Y-114501673D01*
X145385223Y-114429403D01*
X145429147Y-114400054D01*
X145751054Y-113918285D01*
X145864093Y-113350000D01*
X145751054Y-112781715D01*
X145429147Y-112299946D01*
X145099974Y-112080000D01*
X145429147Y-111860054D01*
X145751054Y-111378285D01*
X145864093Y-110810000D01*
X145751054Y-110241715D01*
X145429147Y-109759946D01*
X145099974Y-109540000D01*
X145429147Y-109320054D01*
X145751054Y-108838285D01*
X145836071Y-108410873D01*
X148772599Y-111347401D01*
X149019161Y-111512148D01*
X149310000Y-111570000D01*
X149427046Y-111570000D01*
X149620853Y-111860054D01*
X149950026Y-112080000D01*
X149620853Y-112299946D01*
X149298946Y-112781715D01*
X149185907Y-113350000D01*
X149298946Y-113918285D01*
X149620853Y-114400054D01*
X149664777Y-114429403D01*
X149490302Y-114501673D01*
X149311673Y-114680301D01*
X149215000Y-114913690D01*
X149215000Y-115604250D01*
X149373750Y-115763000D01*
X150573000Y-115763000D01*
X150573000Y-115743000D01*
X150827000Y-115743000D01*
X150827000Y-115763000D01*
X152026250Y-115763000D01*
X152185000Y-115604250D01*
X152185000Y-114913690D01*
X152088327Y-114680301D01*
X151909698Y-114501673D01*
X151735223Y-114429403D01*
X151779147Y-114400054D01*
X152101054Y-113918285D01*
X152214093Y-113350000D01*
X152101054Y-112781715D01*
X151779147Y-112299946D01*
X151449974Y-112080000D01*
X151779147Y-111860054D01*
X152101054Y-111378285D01*
X152214093Y-110810000D01*
X152101054Y-110241715D01*
X151779147Y-109759946D01*
X151449974Y-109540000D01*
X151779147Y-109320054D01*
X152101054Y-108838285D01*
X152214093Y-108270000D01*
X152101054Y-107701715D01*
X151779147Y-107219946D01*
X151449974Y-107000000D01*
X151779147Y-106780054D01*
X152101054Y-106298285D01*
X152214093Y-105730000D01*
X152101054Y-105161715D01*
X151779147Y-104679946D01*
X151449974Y-104460000D01*
X151779147Y-104240054D01*
X152101054Y-103758285D01*
X152214093Y-103190000D01*
X152101054Y-102621715D01*
X151779147Y-102139946D01*
X151449974Y-101920000D01*
X151779147Y-101700054D01*
X152101054Y-101218285D01*
X152214093Y-100650000D01*
X152101054Y-100081715D01*
X151779147Y-99599946D01*
X151449974Y-99380000D01*
X151779147Y-99160054D01*
X152101054Y-98678285D01*
X152214093Y-98110000D01*
X152101054Y-97541715D01*
X151779147Y-97059946D01*
X151297378Y-96738039D01*
X150729093Y-96625000D01*
X150670907Y-96625000D01*
X150102622Y-96738039D01*
X149620853Y-97059946D01*
X149427046Y-97350000D01*
X146890000Y-97350000D01*
X146599161Y-97407852D01*
X146352599Y-97572599D01*
X145855981Y-98069217D01*
X145751054Y-97541715D01*
X145429147Y-97059946D01*
X145110000Y-96846699D01*
X145110000Y-93250000D01*
X145052148Y-92959161D01*
X144887401Y-92712599D01*
X144617421Y-92442619D01*
X150764613Y-92442619D01*
X151104155Y-93264372D01*
X151732321Y-93893636D01*
X152553481Y-94234611D01*
X153442619Y-94235387D01*
X154264372Y-93895845D01*
X154893636Y-93267679D01*
X155234611Y-92446519D01*
X155235387Y-91557381D01*
X154895845Y-90735628D01*
X154267679Y-90106364D01*
X153446519Y-89765389D01*
X152557381Y-89764613D01*
X151735628Y-90104155D01*
X151106364Y-90732321D01*
X150765389Y-91553481D01*
X150764613Y-92442619D01*
X144617421Y-92442619D01*
X143137401Y-90962599D01*
X142890839Y-90797852D01*
X142600000Y-90740000D01*
X139686105Y-90740000D01*
X139595090Y-90598559D01*
X139382890Y-90453569D01*
X139131000Y-90402560D01*
X138631000Y-90402560D01*
X138495191Y-90428114D01*
X138369000Y-90402560D01*
X137869000Y-90402560D01*
X137633683Y-90446838D01*
X137417559Y-90585910D01*
X137312274Y-90740000D01*
X130500000Y-90740000D01*
X130481998Y-90743581D01*
X130463850Y-90740861D01*
X130337193Y-90772385D01*
X130209161Y-90797852D01*
X130193901Y-90808049D01*
X130176092Y-90812481D01*
X130071132Y-90890080D01*
X129962599Y-90962599D01*
X129952403Y-90977858D01*
X129937645Y-90988769D01*
X125163800Y-96240000D01*
X115500000Y-96240000D01*
X115209161Y-96297852D01*
X114962599Y-96462599D01*
X114602599Y-96822599D01*
X114437852Y-97069161D01*
X114380000Y-97360000D01*
X114380000Y-98107046D01*
X114089946Y-98300853D01*
X113870000Y-98630026D01*
X113650054Y-98300853D01*
X113168285Y-97978946D01*
X112600000Y-97865907D01*
X112031715Y-97978946D01*
X111549946Y-98300853D01*
X111330000Y-98630026D01*
X111110054Y-98300853D01*
X110628285Y-97978946D01*
X110060000Y-97865907D01*
X109491715Y-97978946D01*
X109009946Y-98300853D01*
X108790000Y-98630026D01*
X108570054Y-98300853D01*
X108088285Y-97978946D01*
X107520000Y-97865907D01*
X106951715Y-97978946D01*
X106469946Y-98300853D01*
X106250000Y-98630026D01*
X106030054Y-98300853D01*
X105548285Y-97978946D01*
X104980000Y-97865907D01*
X104411715Y-97978946D01*
X103929946Y-98300853D01*
X103710000Y-98630026D01*
X103490054Y-98300853D01*
X103008285Y-97978946D01*
X102440000Y-97865907D01*
X101871715Y-97978946D01*
X101389946Y-98300853D01*
X101170000Y-98630026D01*
X100950054Y-98300853D01*
X100468285Y-97978946D01*
X99900000Y-97865907D01*
X99331715Y-97978946D01*
X98849946Y-98300853D01*
X98630000Y-98630026D01*
X98410054Y-98300853D01*
X97928285Y-97978946D01*
X97360000Y-97865907D01*
X96791715Y-97978946D01*
X96309946Y-98300853D01*
X96090000Y-98630026D01*
X95870054Y-98300853D01*
X95388285Y-97978946D01*
X94820000Y-97865907D01*
X94251715Y-97978946D01*
X93769946Y-98300853D01*
X93550000Y-98630026D01*
X93330054Y-98300853D01*
X92848285Y-97978946D01*
X92280000Y-97865907D01*
X91711715Y-97978946D01*
X91229946Y-98300853D01*
X91010000Y-98630026D01*
X90790054Y-98300853D01*
X90308285Y-97978946D01*
X89740000Y-97865907D01*
X89171715Y-97978946D01*
X88689946Y-98300853D01*
X88368039Y-98782622D01*
X88255000Y-99350907D01*
X85710000Y-99350907D01*
X85710000Y-87710000D01*
X86182099Y-87710000D01*
X86053569Y-87898110D01*
X86053569Y-87898110D01*
G37*
X86053569Y-87898110D02*
X86002560Y-88150000D01*
X86002560Y-89850000D01*
X86046838Y-90085317D01*
X86185910Y-90301441D01*
X86398110Y-90446431D01*
X86465541Y-90460086D01*
X86420853Y-90489946D01*
X86098946Y-90971715D01*
X85985907Y-91540000D01*
X86098946Y-92108285D01*
X86420853Y-92590054D01*
X86750026Y-92810000D01*
X86420853Y-93029946D01*
X86098946Y-93511715D01*
X85985907Y-94080000D01*
X86098946Y-94648285D01*
X86420853Y-95130054D01*
X86902622Y-95451961D01*
X87470907Y-95565000D01*
X87529093Y-95565000D01*
X88097378Y-95451961D01*
X88579147Y-95130054D01*
X88901054Y-94648285D01*
X89014093Y-94080000D01*
X88901054Y-93511715D01*
X88579147Y-93029946D01*
X88249974Y-92810000D01*
X88579147Y-92590054D01*
X88901054Y-92108285D01*
X89014093Y-91540000D01*
X88901054Y-90971715D01*
X88579147Y-90489946D01*
X88537548Y-90462150D01*
X88585317Y-90453162D01*
X88801441Y-90314090D01*
X88946431Y-90101890D01*
X88997440Y-89850000D01*
X88997440Y-88150000D01*
X88953162Y-87914683D01*
X88821452Y-87710000D01*
X90682099Y-87710000D01*
X90553569Y-87898110D01*
X90502560Y-88150000D01*
X90502560Y-89850000D01*
X90546838Y-90085317D01*
X90685910Y-90301441D01*
X90898110Y-90446431D01*
X90965541Y-90460086D01*
X90920853Y-90489946D01*
X90598946Y-90971715D01*
X90485907Y-91540000D01*
X90598946Y-92108285D01*
X90920853Y-92590054D01*
X91250026Y-92810000D01*
X90920853Y-93029946D01*
X90598946Y-93511715D01*
X90485907Y-94080000D01*
X90598946Y-94648285D01*
X90920853Y-95130054D01*
X91402622Y-95451961D01*
X91970907Y-95565000D01*
X92029093Y-95565000D01*
X92597378Y-95451961D01*
X93079147Y-95130054D01*
X93401054Y-94648285D01*
X93514093Y-94080000D01*
X93401054Y-93511715D01*
X93079147Y-93029946D01*
X92749974Y-92810000D01*
X93079147Y-92590054D01*
X93401054Y-92108285D01*
X93514093Y-91540000D01*
X93401054Y-90971715D01*
X93079147Y-90489946D01*
X93037548Y-90462150D01*
X93085317Y-90453162D01*
X93301441Y-90314090D01*
X93446431Y-90101890D01*
X93497440Y-89850000D01*
X93497440Y-88150000D01*
X93453162Y-87914683D01*
X93321452Y-87710000D01*
X95182099Y-87710000D01*
X95053569Y-87898110D01*
X95002560Y-88150000D01*
X95002560Y-89850000D01*
X95046838Y-90085317D01*
X95185910Y-90301441D01*
X95398110Y-90446431D01*
X95465541Y-90460086D01*
X95420853Y-90489946D01*
X95098946Y-90971715D01*
X94985907Y-91540000D01*
X95098946Y-92108285D01*
X95420853Y-92590054D01*
X95750026Y-92810000D01*
X95420853Y-93029946D01*
X95098946Y-93511715D01*
X94985907Y-94080000D01*
X95098946Y-94648285D01*
X95420853Y-95130054D01*
X95902622Y-95451961D01*
X96470907Y-95565000D01*
X96529093Y-95565000D01*
X97097378Y-95451961D01*
X97579147Y-95130054D01*
X97901054Y-94648285D01*
X98014093Y-94080000D01*
X97901054Y-93511715D01*
X97579147Y-93029946D01*
X97249974Y-92810000D01*
X97579147Y-92590054D01*
X97901054Y-92108285D01*
X98014093Y-91540000D01*
X97901054Y-90971715D01*
X97579147Y-90489946D01*
X97537548Y-90462150D01*
X97585317Y-90453162D01*
X97801441Y-90314090D01*
X97946431Y-90101890D01*
X97997440Y-89850000D01*
X97997440Y-88150000D01*
X97953162Y-87914683D01*
X97821452Y-87710000D01*
X99682099Y-87710000D01*
X99553569Y-87898110D01*
X99502560Y-88150000D01*
X99502560Y-89850000D01*
X99546838Y-90085317D01*
X99685910Y-90301441D01*
X99898110Y-90446431D01*
X99965541Y-90460086D01*
X99920853Y-90489946D01*
X99598946Y-90971715D01*
X99485907Y-91540000D01*
X99598946Y-92108285D01*
X99920853Y-92590054D01*
X100250026Y-92810000D01*
X99920853Y-93029946D01*
X99598946Y-93511715D01*
X99485907Y-94080000D01*
X99598946Y-94648285D01*
X99920853Y-95130054D01*
X100402622Y-95451961D01*
X100970907Y-95565000D01*
X101029093Y-95565000D01*
X101597378Y-95451961D01*
X102079147Y-95130054D01*
X102401054Y-94648285D01*
X102514093Y-94080000D01*
X102401054Y-93511715D01*
X102079147Y-93029946D01*
X101749974Y-92810000D01*
X102079147Y-92590054D01*
X102177659Y-92442619D01*
X120764613Y-92442619D01*
X121104155Y-93264372D01*
X121732321Y-93893636D01*
X122553481Y-94234611D01*
X123442619Y-94235387D01*
X124264372Y-93895845D01*
X124893636Y-93267679D01*
X125234611Y-92446519D01*
X125235387Y-91557381D01*
X124895845Y-90735628D01*
X124267679Y-90106364D01*
X123446519Y-89765389D01*
X122557381Y-89764613D01*
X121735628Y-90104155D01*
X121106364Y-90732321D01*
X120765389Y-91553481D01*
X120764613Y-92442619D01*
X102177659Y-92442619D01*
X102401054Y-92108285D01*
X102514093Y-91540000D01*
X102401054Y-90971715D01*
X102079147Y-90489946D01*
X102037548Y-90462150D01*
X102085317Y-90453162D01*
X102301441Y-90314090D01*
X102446431Y-90101890D01*
X102497440Y-89850000D01*
X102497440Y-88150000D01*
X102453162Y-87914683D01*
X102321452Y-87710000D01*
X155290000Y-87710000D01*
X155290000Y-126290000D01*
X85710000Y-126290000D01*
X85710000Y-124540000D01*
X94985907Y-124540000D01*
X95098946Y-125108285D01*
X95420853Y-125590054D01*
X95902622Y-125911961D01*
X96470907Y-126025000D01*
X96529093Y-126025000D01*
X97097378Y-125911961D01*
X97579147Y-125590054D01*
X97722841Y-125375000D01*
X115960000Y-125375000D01*
X116279541Y-125311439D01*
X116550434Y-125130434D01*
X119238249Y-122442619D01*
X120764613Y-122442619D01*
X121104155Y-123264372D01*
X121732321Y-123893636D01*
X122553481Y-124234611D01*
X123442619Y-124235387D01*
X124264372Y-123895845D01*
X124893636Y-123267679D01*
X125212403Y-122500000D01*
X128916887Y-122500000D01*
X129026120Y-123049151D01*
X129337189Y-123514698D01*
X129802736Y-123825767D01*
X130351887Y-123935000D01*
X130408113Y-123935000D01*
X130957264Y-123825767D01*
X131422811Y-123514698D01*
X131733880Y-123049151D01*
X131786584Y-122784187D01*
X136564752Y-122784187D01*
X136782757Y-123311800D01*
X137186077Y-123715824D01*
X137713309Y-123934750D01*
X138284187Y-123935248D01*
X138811800Y-123717243D01*
X139194710Y-123335000D01*
X140452560Y-123335000D01*
X140452560Y-123400000D01*
X140496838Y-123635317D01*
X140635910Y-123851441D01*
X140848110Y-123996431D01*
X141100000Y-124047440D01*
X142900000Y-124047440D01*
X143135317Y-124003162D01*
X143351441Y-123864090D01*
X143490598Y-123660426D01*
X143524890Y-123694718D01*
X143639447Y-123580161D01*
X143725852Y-123836643D01*
X144299336Y-124046458D01*
X144909460Y-124020839D01*
X145354148Y-123836643D01*
X145440554Y-123580159D01*
X144540000Y-122679605D01*
X144525858Y-122693748D01*
X144346253Y-122514143D01*
X144360395Y-122500000D01*
X144719605Y-122500000D01*
X145620159Y-123400554D01*
X145876643Y-123314148D01*
X146086458Y-122740664D01*
X146073944Y-122442619D01*
X150764613Y-122442619D01*
X151104155Y-123264372D01*
X151732321Y-123893636D01*
X152553481Y-124234611D01*
X153442619Y-124235387D01*
X154264372Y-123895845D01*
X154893636Y-123267679D01*
X155234611Y-122446519D01*
X155235387Y-121557381D01*
X154895845Y-120735628D01*
X154267679Y-120106364D01*
X153446519Y-119765389D01*
X152557381Y-119764613D01*
X151735628Y-120104155D01*
X151106364Y-120732321D01*
X150765389Y-121553481D01*
X150764613Y-122442619D01*
X146073944Y-122442619D01*
X146060839Y-122130540D01*
X145876643Y-121685852D01*
X145620159Y-121599446D01*
X144719605Y-122500000D01*
X144360395Y-122500000D01*
X144346253Y-122485858D01*
X144525858Y-122306253D01*
X144540000Y-122320395D01*
X145440554Y-121419841D01*
X145354148Y-121163357D01*
X144780664Y-120953542D01*
X144170540Y-120979161D01*
X143725852Y-121163357D01*
X143639447Y-121419839D01*
X143524890Y-121305282D01*
X143488412Y-121341760D01*
X143364090Y-121148559D01*
X143151890Y-121003569D01*
X142900000Y-120952560D01*
X141100000Y-120952560D01*
X140864683Y-120996838D01*
X140648559Y-121135910D01*
X140503569Y-121348110D01*
X140452560Y-121600000D01*
X140452560Y-121665000D01*
X139194083Y-121665000D01*
X138813923Y-121284176D01*
X138286691Y-121065250D01*
X137715813Y-121064752D01*
X137188200Y-121282757D01*
X136784176Y-121686077D01*
X136565250Y-122213309D01*
X136564752Y-122784187D01*
X131786584Y-122784187D01*
X131843113Y-122500000D01*
X131733880Y-121950849D01*
X131422811Y-121485302D01*
X130957264Y-121174233D01*
X130408113Y-121065000D01*
X130351887Y-121065000D01*
X129802736Y-121174233D01*
X129337189Y-121485302D01*
X129026120Y-121950849D01*
X128916887Y-122500000D01*
X125212403Y-122500000D01*
X125234611Y-122446519D01*
X125235387Y-121557381D01*
X124895845Y-120735628D01*
X124267679Y-120106364D01*
X123446519Y-119765389D01*
X122557381Y-119764613D01*
X121735628Y-120104155D01*
X121106364Y-120732321D01*
X120765389Y-121553481D01*
X120764613Y-122442619D01*
X119238249Y-122442619D01*
X125505118Y-116175750D01*
X142865000Y-116175750D01*
X142865000Y-116866310D01*
X142961673Y-117099699D01*
X143140302Y-117278327D01*
X143373691Y-117375000D01*
X144064250Y-117375000D01*
X144223000Y-117216250D01*
X144223000Y-116017000D01*
X144477000Y-116017000D01*
X144477000Y-117216250D01*
X144635750Y-117375000D01*
X145326309Y-117375000D01*
X145559698Y-117278327D01*
X145738327Y-117099699D01*
X145835000Y-116866310D01*
X145835000Y-116175750D01*
X149215000Y-116175750D01*
X149215000Y-116866310D01*
X149311673Y-117099699D01*
X149490302Y-117278327D01*
X149723691Y-117375000D01*
X150414250Y-117375000D01*
X150573000Y-117216250D01*
X150573000Y-116017000D01*
X150827000Y-116017000D01*
X150827000Y-117216250D01*
X150985750Y-117375000D01*
X151676309Y-117375000D01*
X151909698Y-117278327D01*
X152088327Y-117099699D01*
X152185000Y-116866310D01*
X152185000Y-116175750D01*
X152026250Y-116017000D01*
X150827000Y-116017000D01*
X150573000Y-116017000D01*
X149373750Y-116017000D01*
X149215000Y-116175750D01*
X145835000Y-116175750D01*
X145676250Y-116017000D01*
X144477000Y-116017000D01*
X144223000Y-116017000D01*
X143023750Y-116017000D01*
X142865000Y-116175750D01*
X125505118Y-116175750D01*
X125608050Y-116072818D01*
X125868285Y-116021054D01*
X126350054Y-115699147D01*
X126671961Y-115217378D01*
X126785000Y-114649093D01*
X126785000Y-114590907D01*
X126671961Y-114022622D01*
X126350054Y-113540853D01*
X125868285Y-113218946D01*
X125300000Y-113105907D01*
X124731715Y-113218946D01*
X124249946Y-113540853D01*
X124030000Y-113870026D01*
X123810054Y-113540853D01*
X123328285Y-113218946D01*
X122760000Y-113105907D01*
X122191715Y-113218946D01*
X121709946Y-113540853D01*
X121490000Y-113870026D01*
X121270054Y-113540853D01*
X120788285Y-113218946D01*
X120220000Y-113105907D01*
X119651715Y-113218946D01*
X119169946Y-113540853D01*
X118942298Y-113881553D01*
X118875183Y-113738642D01*
X118446924Y-113348355D01*
X118036890Y-113178524D01*
X117807000Y-113299845D01*
X117807000Y-114493000D01*
X117827000Y-114493000D01*
X117827000Y-114747000D01*
X117807000Y-114747000D01*
X117807000Y-115940155D01*
X118036890Y-116061476D01*
X118446924Y-115891645D01*
X118875183Y-115501358D01*
X118942298Y-115358447D01*
X119169946Y-115699147D01*
X119651715Y-116021054D01*
X120190839Y-116128293D01*
X115154132Y-121165000D01*
X97997440Y-121165000D01*
X97997440Y-121150000D01*
X97953162Y-120914683D01*
X97814090Y-120698559D01*
X97601890Y-120553569D01*
X97350000Y-120502560D01*
X95650000Y-120502560D01*
X95414683Y-120546838D01*
X95198559Y-120685910D01*
X95053569Y-120898110D01*
X95002560Y-121150000D01*
X95002560Y-122850000D01*
X95046838Y-123085317D01*
X95185910Y-123301441D01*
X95398110Y-123446431D01*
X95465541Y-123460086D01*
X95420853Y-123489946D01*
X95098946Y-123971715D01*
X94985907Y-124540000D01*
X85710000Y-124540000D01*
X85710000Y-99350907D01*
X88255000Y-99350907D01*
X88255000Y-99409093D01*
X88368039Y-99977378D01*
X88689946Y-100459147D01*
X89171715Y-100781054D01*
X89740000Y-100894093D01*
X90308285Y-100781054D01*
X90790054Y-100459147D01*
X91010000Y-100129974D01*
X91229946Y-100459147D01*
X91711715Y-100781054D01*
X92280000Y-100894093D01*
X92848285Y-100781054D01*
X93330054Y-100459147D01*
X93550000Y-100129974D01*
X93769946Y-100459147D01*
X94251715Y-100781054D01*
X94820000Y-100894093D01*
X95388285Y-100781054D01*
X95870054Y-100459147D01*
X96090000Y-100129974D01*
X96309946Y-100459147D01*
X96791715Y-100781054D01*
X97360000Y-100894093D01*
X97928285Y-100781054D01*
X98410054Y-100459147D01*
X98630000Y-100129974D01*
X98849946Y-100459147D01*
X99140000Y-100652954D01*
X99140000Y-102150000D01*
X99197852Y-102440839D01*
X99362599Y-102687401D01*
X103462599Y-106787401D01*
X103709161Y-106952148D01*
X104000000Y-107010000D01*
X143585060Y-107010000D01*
X143270853Y-107219946D01*
X143077046Y-107510000D01*
X113870000Y-107510000D01*
X113579161Y-107567852D01*
X113332599Y-107732599D01*
X107886408Y-113178790D01*
X107520000Y-113105907D01*
X106951715Y-113218946D01*
X106469946Y-113540853D01*
X106250000Y-113870026D01*
X106030054Y-113540853D01*
X105548285Y-113218946D01*
X104980000Y-113105907D01*
X104411715Y-113218946D01*
X103929946Y-113540853D01*
X103710000Y-113870026D01*
X103490054Y-113540853D01*
X103008285Y-113218946D01*
X102440000Y-113105907D01*
X101871715Y-113218946D01*
X101389946Y-113540853D01*
X101170000Y-113870026D01*
X100950054Y-113540853D01*
X100468285Y-113218946D01*
X99900000Y-113105907D01*
X99331715Y-113218946D01*
X98849946Y-113540853D01*
X98630000Y-113870026D01*
X98410054Y-113540853D01*
X97928285Y-113218946D01*
X97360000Y-113105907D01*
X96791715Y-113218946D01*
X96309946Y-113540853D01*
X96090000Y-113870026D01*
X95870054Y-113540853D01*
X95388285Y-113218946D01*
X94820000Y-113105907D01*
X94251715Y-113218946D01*
X93769946Y-113540853D01*
X93550000Y-113870026D01*
X93330054Y-113540853D01*
X92848285Y-113218946D01*
X92280000Y-113105907D01*
X91711715Y-113218946D01*
X91229946Y-113540853D01*
X91010000Y-113870026D01*
X90790054Y-113540853D01*
X90308285Y-113218946D01*
X89740000Y-113105907D01*
X89171715Y-113218946D01*
X88689946Y-113540853D01*
X88368039Y-114022622D01*
X88255000Y-114590907D01*
X88255000Y-114649093D01*
X88368039Y-115217378D01*
X88689946Y-115699147D01*
X89171715Y-116021054D01*
X89740000Y-116134093D01*
X90308285Y-116021054D01*
X90790054Y-115699147D01*
X91010000Y-115369974D01*
X91229946Y-115699147D01*
X91711715Y-116021054D01*
X92280000Y-116134093D01*
X92848285Y-116021054D01*
X93330054Y-115699147D01*
X93550000Y-115369974D01*
X93769946Y-115699147D01*
X94251715Y-116021054D01*
X94820000Y-116134093D01*
X95388285Y-116021054D01*
X95870054Y-115699147D01*
X96090000Y-115369974D01*
X96309946Y-115699147D01*
X96791715Y-116021054D01*
X97360000Y-116134093D01*
X97928285Y-116021054D01*
X98410054Y-115699147D01*
X98630000Y-115369974D01*
X98849946Y-115699147D01*
X99331715Y-116021054D01*
X99900000Y-116134093D01*
X100468285Y-116021054D01*
X100950054Y-115699147D01*
X101170000Y-115369974D01*
X101389946Y-115699147D01*
X101871715Y-116021054D01*
X102440000Y-116134093D01*
X103008285Y-116021054D01*
X103490054Y-115699147D01*
X103710000Y-115369974D01*
X103929946Y-115699147D01*
X104411715Y-116021054D01*
X104980000Y-116134093D01*
X105548285Y-116021054D01*
X106030054Y-115699147D01*
X106250000Y-115369974D01*
X106469946Y-115699147D01*
X106951715Y-116021054D01*
X107520000Y-116134093D01*
X108088285Y-116021054D01*
X108570054Y-115699147D01*
X108790000Y-115369974D01*
X109009946Y-115699147D01*
X109491715Y-116021054D01*
X110060000Y-116134093D01*
X110628285Y-116021054D01*
X111110054Y-115699147D01*
X111330000Y-115369974D01*
X111549946Y-115699147D01*
X112031715Y-116021054D01*
X112600000Y-116134093D01*
X113168285Y-116021054D01*
X113650054Y-115699147D01*
X113870000Y-115369974D01*
X114089946Y-115699147D01*
X114571715Y-116021054D01*
X115140000Y-116134093D01*
X115708285Y-116021054D01*
X116190054Y-115699147D01*
X116417702Y-115358447D01*
X116484817Y-115501358D01*
X116913076Y-115891645D01*
X117323110Y-116061476D01*
X117553000Y-115940155D01*
X117553000Y-114747000D01*
X117533000Y-114747000D01*
X117533000Y-114493000D01*
X117553000Y-114493000D01*
X117553000Y-113299845D01*
X117323110Y-113178524D01*
X116913076Y-113348355D01*
X116484817Y-113738642D01*
X116417702Y-113881553D01*
X116190054Y-113540853D01*
X115708285Y-113218946D01*
X115140000Y-113105907D01*
X114571715Y-113218946D01*
X114089946Y-113540853D01*
X113870000Y-113870026D01*
X113650054Y-113540853D01*
X113168285Y-113218946D01*
X112640783Y-113114019D01*
X114184802Y-111570000D01*
X143077046Y-111570000D01*
X143270853Y-111860054D01*
X143600026Y-112080000D01*
X143270853Y-112299946D01*
X142948946Y-112781715D01*
X142835907Y-113350000D01*
X142948946Y-113918285D01*
X143270853Y-114400054D01*
X143314777Y-114429403D01*
X143140302Y-114501673D01*
X142961673Y-114680301D01*
X142865000Y-114913690D01*
X142865000Y-115604250D01*
X143023750Y-115763000D01*
X144223000Y-115763000D01*
X144223000Y-115743000D01*
X144477000Y-115743000D01*
X144477000Y-115763000D01*
X145676250Y-115763000D01*
X145835000Y-115604250D01*
X145835000Y-114913690D01*
X145738327Y-114680301D01*
X145559698Y-114501673D01*
X145385223Y-114429403D01*
X145429147Y-114400054D01*
X145751054Y-113918285D01*
X145864093Y-113350000D01*
X145751054Y-112781715D01*
X145429147Y-112299946D01*
X145099974Y-112080000D01*
X145429147Y-111860054D01*
X145751054Y-111378285D01*
X145864093Y-110810000D01*
X145751054Y-110241715D01*
X145429147Y-109759946D01*
X145099974Y-109540000D01*
X145429147Y-109320054D01*
X145751054Y-108838285D01*
X145836071Y-108410873D01*
X148772599Y-111347401D01*
X149019161Y-111512148D01*
X149310000Y-111570000D01*
X149427046Y-111570000D01*
X149620853Y-111860054D01*
X149950026Y-112080000D01*
X149620853Y-112299946D01*
X149298946Y-112781715D01*
X149185907Y-113350000D01*
X149298946Y-113918285D01*
X149620853Y-114400054D01*
X149664777Y-114429403D01*
X149490302Y-114501673D01*
X149311673Y-114680301D01*
X149215000Y-114913690D01*
X149215000Y-115604250D01*
X149373750Y-115763000D01*
X150573000Y-115763000D01*
X150573000Y-115743000D01*
X150827000Y-115743000D01*
X150827000Y-115763000D01*
X152026250Y-115763000D01*
X152185000Y-115604250D01*
X152185000Y-114913690D01*
X152088327Y-114680301D01*
X151909698Y-114501673D01*
X151735223Y-114429403D01*
X151779147Y-114400054D01*
X152101054Y-113918285D01*
X152214093Y-113350000D01*
X152101054Y-112781715D01*
X151779147Y-112299946D01*
X151449974Y-112080000D01*
X151779147Y-111860054D01*
X152101054Y-111378285D01*
X152214093Y-110810000D01*
X152101054Y-110241715D01*
X151779147Y-109759946D01*
X151449974Y-109540000D01*
X151779147Y-109320054D01*
X152101054Y-108838285D01*
X152214093Y-108270000D01*
X152101054Y-107701715D01*
X151779147Y-107219946D01*
X151449974Y-107000000D01*
X151779147Y-106780054D01*
X152101054Y-106298285D01*
X152214093Y-105730000D01*
X152101054Y-105161715D01*
X151779147Y-104679946D01*
X151449974Y-104460000D01*
X151779147Y-104240054D01*
X152101054Y-103758285D01*
X152214093Y-103190000D01*
X152101054Y-102621715D01*
X151779147Y-102139946D01*
X151449974Y-101920000D01*
X151779147Y-101700054D01*
X152101054Y-101218285D01*
X152214093Y-100650000D01*
X152101054Y-100081715D01*
X151779147Y-99599946D01*
X151449974Y-99380000D01*
X151779147Y-99160054D01*
X152101054Y-98678285D01*
X152214093Y-98110000D01*
X152101054Y-97541715D01*
X151779147Y-97059946D01*
X151297378Y-96738039D01*
X150729093Y-96625000D01*
X150670907Y-96625000D01*
X150102622Y-96738039D01*
X149620853Y-97059946D01*
X149427046Y-97350000D01*
X146890000Y-97350000D01*
X146599161Y-97407852D01*
X146352599Y-97572599D01*
X145855981Y-98069217D01*
X145751054Y-97541715D01*
X145429147Y-97059946D01*
X145110000Y-96846699D01*
X145110000Y-93250000D01*
X145052148Y-92959161D01*
X144887401Y-92712599D01*
X144617421Y-92442619D01*
X150764613Y-92442619D01*
X151104155Y-93264372D01*
X151732321Y-93893636D01*
X152553481Y-94234611D01*
X153442619Y-94235387D01*
X154264372Y-93895845D01*
X154893636Y-93267679D01*
X155234611Y-92446519D01*
X155235387Y-91557381D01*
X154895845Y-90735628D01*
X154267679Y-90106364D01*
X153446519Y-89765389D01*
X152557381Y-89764613D01*
X151735628Y-90104155D01*
X151106364Y-90732321D01*
X150765389Y-91553481D01*
X150764613Y-92442619D01*
X144617421Y-92442619D01*
X143137401Y-90962599D01*
X142890839Y-90797852D01*
X142600000Y-90740000D01*
X139686105Y-90740000D01*
X139595090Y-90598559D01*
X139382890Y-90453569D01*
X139131000Y-90402560D01*
X138631000Y-90402560D01*
X138495191Y-90428114D01*
X138369000Y-90402560D01*
X137869000Y-90402560D01*
X137633683Y-90446838D01*
X137417559Y-90585910D01*
X137312274Y-90740000D01*
X130500000Y-90740000D01*
X130481998Y-90743581D01*
X130463850Y-90740861D01*
X130337193Y-90772385D01*
X130209161Y-90797852D01*
X130193901Y-90808049D01*
X130176092Y-90812481D01*
X130071132Y-90890080D01*
X129962599Y-90962599D01*
X129952403Y-90977858D01*
X129937645Y-90988769D01*
X125163800Y-96240000D01*
X115500000Y-96240000D01*
X115209161Y-96297852D01*
X114962599Y-96462599D01*
X114602599Y-96822599D01*
X114437852Y-97069161D01*
X114380000Y-97360000D01*
X114380000Y-98107046D01*
X114089946Y-98300853D01*
X113870000Y-98630026D01*
X113650054Y-98300853D01*
X113168285Y-97978946D01*
X112600000Y-97865907D01*
X112031715Y-97978946D01*
X111549946Y-98300853D01*
X111330000Y-98630026D01*
X111110054Y-98300853D01*
X110628285Y-97978946D01*
X110060000Y-97865907D01*
X109491715Y-97978946D01*
X109009946Y-98300853D01*
X108790000Y-98630026D01*
X108570054Y-98300853D01*
X108088285Y-97978946D01*
X107520000Y-97865907D01*
X106951715Y-97978946D01*
X106469946Y-98300853D01*
X106250000Y-98630026D01*
X106030054Y-98300853D01*
X105548285Y-97978946D01*
X104980000Y-97865907D01*
X104411715Y-97978946D01*
X103929946Y-98300853D01*
X103710000Y-98630026D01*
X103490054Y-98300853D01*
X103008285Y-97978946D01*
X102440000Y-97865907D01*
X101871715Y-97978946D01*
X101389946Y-98300853D01*
X101170000Y-98630026D01*
X100950054Y-98300853D01*
X100468285Y-97978946D01*
X99900000Y-97865907D01*
X99331715Y-97978946D01*
X98849946Y-98300853D01*
X98630000Y-98630026D01*
X98410054Y-98300853D01*
X97928285Y-97978946D01*
X97360000Y-97865907D01*
X96791715Y-97978946D01*
X96309946Y-98300853D01*
X96090000Y-98630026D01*
X95870054Y-98300853D01*
X95388285Y-97978946D01*
X94820000Y-97865907D01*
X94251715Y-97978946D01*
X93769946Y-98300853D01*
X93550000Y-98630026D01*
X93330054Y-98300853D01*
X92848285Y-97978946D01*
X92280000Y-97865907D01*
X91711715Y-97978946D01*
X91229946Y-98300853D01*
X91010000Y-98630026D01*
X90790054Y-98300853D01*
X90308285Y-97978946D01*
X89740000Y-97865907D01*
X89171715Y-97978946D01*
X88689946Y-98300853D01*
X88368039Y-98782622D01*
X88255000Y-99350907D01*
X85710000Y-99350907D01*
X85710000Y-87710000D01*
X86182099Y-87710000D01*
X86053569Y-87898110D01*
M02*
